﻿Experiment [-];Packung [-];Temperatur [K];Druck [bar];m_c [kg/h];m_d [kg/h];Volumenspezifische Oberflaeche a_p [m^-1];epsilon [-];Dichte Wasser [kg/m3];Viskositaet Wasser [Pas];Dichte CO2 [kg/m3];Viskositaet CO2 [Pas];Dichtedifferenz [kg/m3];Kontibelastung [kg/m2s];Dispersbelastung [kg/m2s];Stroemungsgeschwindigkeit_konti_berechnet [m/s];Stroemungsgeschwindigkeit dispers_berechnet [m/s];Holdup_exp [%]
ST;CY;313.15;100;18;0.4;700;0.86;996.57;0.00065569;628.612;0.000047825;367.958;4.408724185;0.097971649;0.007013427;9.83088E-05;0.646792517
ST;CY;313.15;100;10;0.2;700;0.86;996.57;0.00065569;628.612;0.000047825;367.958;2.449291214;0.048985824;0.003896348;4.91544E-05;0.388480765
ST;CY;313.15;100;18;0.2;700;0.86;996.57;0.00065569;628.612;0.000047825;367.958;4.408724185;0.048985824;0.007013427;4.91544E-05;0.577247046
ST;CY;313.15;100;10;0.1;700;0.86;996.57;0.00065569;628.612;0.000047825;367.958;2.449291214;0.024492912;0.003896348;2.45772E-05;0.25932489
ST;CY;313.15;100;18;1;700;0.86;996.57;0.00065569;628.612;0.000047825;367.958;4.408724185;0.244929121;0.007013427;0.000245772;0.815688663
ST;CY;313.15;100;10;0.5;700;0.86;996.57;0.00065569;628.612;0.000047825;367.958;2.449291214;0.122464561;0.003896348;0.000122886;0.458026237
ST;CY;313.15;90;10;1;700;0.86;996.14;0.0006556;485.5;0.000034806;510.64;2.449291214;0.244929121;0.005044884;0.000245878;0.578533636
AD_k;Mellapak;313.15;100;10;1;700;0.86;996.57;0.00065569;628.612;0.000047825;367.958;2.449291214;0.244929121;0.003896348;0.000245772;0.537506776
AD_k;Mellapak;313.15;100;18;1;700;0.86;996.57;0.00065569;628.612;0.000047825;367.958;4.408724185;0.244929121;0.007013427;0.000245772;0.716337989
AD_k;Mellapak;313.15;90;9;1.5;700;0.86;996.14;0.0006556;485.5;0.000034806;510.64;2.204362093;0.367393682;0.004540396;0.000368817;0.538776212
AD_k;Mellapak;313.15;90;15;0.5;700;0.86;996.14;0.0006556;485.5;0.000034806;510.64;3.673936821;0.122464561;0.007567326;0.000122939;0.359867803
AD_k;Mellapak;313.15;90;15;1.5;700;0.86;996.14;0.0006556;485.5;0.000034806;510.64;3.673936821;0.367393682;0.007567326;0.000368817;0.81707818
AD_k;Mellapak;313.15;100;12;2;700;0.86;996.57;0.00065569;628.612;0.000047825;367.958;2.939149457;0.489858243;0.004675618;0.000491544;1.074000415
AD_k;Mellapak ;313.15;110;9;0.5;700;0.86;996.94;0.00065397;683.52;0.000054123;313.42;2.204362093;0.122464561;0.003225015;0.00012284;0.516552588
AD_k;Mellapak;313.15;110;15;0.5;700;0.86;996.94;0.00065397;684.52;0.000054123;312.42;3.673936821;0.122464561;0.005367172;0.00012284;0.576140868
AD_k;Mellapak ;313.15;120;12;1;700;0.86;997.37;0.00065408;717.76;0.000058528;279.61;2.939149457;0.244929121;0.004094892;0.000245575;0.8329609
AD_d;Mellpak;313.15;100;6;1;700;0.86;996.57;0.00065569;628.612;0.000047825;367.958;1.469574728;0.244929121;0.002337809;0.000245772;0.418285968
ST;Mellapak;313.15;100;18;2;700;0.86;996.57;0.00065569;628.612;0.000047825;367.958;4.408724185;0.489858243;0.007013427;0.000491544;0.915039337
ST;Mellapak ;313.15;90;18;2;700;0.86;996.14;0.0006556;485.5;0.000034806;510.64;4.408724185;0.489858243;0.009080791;0.000491756;0.757442044
ST;Mellapak;313.15;100;10;1;700;0.86;996.57;0.00065569;628.612;0.000047825;367.958;2.449291214;0.244929121;0.003896348;0.000245772;0.418285968
ST;Mellapak;313.15;100;18;0.4;700;0.86;996.57;0.00065569;628.612;0.000047825;367.958;4.408724185;0.097971649;0.007013427;9.83088E-05;0.378545698
ST;Mellapak;313.15;100;10;0.2;700;0.86;996.57;0.00065569;628.612;0.000047825;367.958;2.449291214;0.048985824;0.003896348;4.91544E-05;0.060623542
ST;Mellapak;313.15;100;10;0.1;700;0.86;996.57;0.00065569;629.612;0.000047825;366.958;2.449291214;0.024492912;0.00389016;2.45772E-05;0.357662426
ST;Mellapak;313.15;100;10;0.5;700;0.86;996.57;0.00065569;630.612;0.000047825;365.958;2.449291214;0.122464561;0.003883991;0.000122886;0.438156102
ST;Mellapak;313.15;130;10;1;700;0.86;997.86;0.00065601;743.04;0.000062056;254.82;2.449291214;0.244929121;0.003296311;0.000245454;0.910749533
ST;Mellapak;313.15;150;10;1;700;0.86;998.71;0.00065622;780.23;0.000067739;218.48;2.449291214;0.244929121;0.003139191;0.000245245;0.888101418

